Praktikum 5 Anreg
…
## Loading required package: carData

## 
## Attaching package: 'car'

## The following object is masked from 'package:dplyr':
## 
##     recode

Data

dt <- read_xlsx("/Users/intanaisa/Documents/Kuliah/Semester 4/Analisis Regresi/Dataset Anreg.xlsx")
dt

## # A tibble: 34 × 7
##    Provinsi   Jumlah Pengunjung (Y…¹ `Jumlah Tenaga Kerja` `Jumlah Objek Wisata`
##    <chr>                       <dbl>                 <dbl>                 <dbl>
##  1 Papua Bar…                  62780                   141                    15
##  2 Kepulauan…                1866681                   785                    52
##  3 Maluku                     308482                   110                    17
##  4 Sulawesi …                 535517                   345                    31
##  5 Sulawesi …                4517360                  1178                    90
##  6 Kepulauan…                2151799                   739                    56
##  7 Sulawesi …                 305198                   282                    29
##  8 Bengkulu                  1020904                   539                    41
##  9 Kalimanta…                1107930                   810                    66
## 10 Jawa Timur               55995143                 12820                   667
## # ℹ 24 more rows
## # ℹ abbreviated name: ¹​`Jumlah Pengunjung (Y)`
## # ℹ 3 more variables: `Total Pengeluaran` <dbl>, `Tindak Pidana Korupsi` <dbl>,
## #   `Usaha Akomodasi` <dbl>
…
